{
    "tags": {
        "allowUnknownTags": true
    },
    "source": {
        "includePattern": ".+\\.js(doc)?$",
        "excludePattern": ""
    },
    "plugins": [],
    "templates": {
        "cleverLinks": false,
        "monospaceLinks": false,
        "default": {
            "outputSourceFiles": true
        },
		"systemName": "DocStrap",
		"footer":"",
		"copyright": "",
		"navType": "vertical",
		"theme": "cosmo",
		"linenums": true,
		"collapseSymbols": false,
		"inverseNav": true
    },
	"opts": {
		"destination": "./documentations/",
		"encoding": "utf8",
		"private": true,
		"recurse": true
	}
}